…
## Requirements

You need to have access to the [ECB Data Web Service
API](https://data-api.ecb.europa.eu/ "ECB Data Web Service API")

## Code examples

### Available currencies

Let’s first see which currencies are actually available:

``` r
EXR::get_available_currencies()
#> # A tibble: 31 × 2
#>   ISOCODE TITLE            
#>   <chr>   <chr>            
#> 1 AUD     Australian dollar
#> 2 BGN     Bulgarian lev    
#> 3 BRL     Brazilian real   
#> 4 CAD     Canadian dollar  
#> 5 CHF     Swiss franc      
#> # ℹ 26 more rows
```
…
